[api-updater (non-obsolete-error-filter)] 2/09/2021 6:55:14 a. m. : Starting C:/Program Files/Unity/Hub/Editor/2020.3.16f1/Editor/Data/Tools/ScriptUpdater/APIUpdater.NonObsoleteApiUpdaterDetector.exe
[api-updater (non-obsolete-error-filter)] 
----------------------------------
jit/startup time      : 820.4684ms
moved types parse time: 82ms
candidates parse time : 2ms
C# parse time         : 364ms
candidates check time : 46ms
console write time    : 1ms

